The broken bridge between biologists and statisticians | Some everyday data tasks: a few hints with R (revisited)
…
In that post, I used the methods I was more familiar with. And, as a long-time R user, I have mainly incorporated in my workflow all the functions from the base R implementation.

But now, the tidyverse is with us! Well, as far as I know, the tidyverse has been around long before my post. However, for a long time, I did not want to surrender to such a new paradygm. I am no longer a young scientist and, therefore, picking up new techniques is becoming more difficult: why should I abandon my effective workflow in favour of new techniques, which I am not familiar with? Yes I know, the young scientists are thinking that I am just an old dinosaur, who is trying to resist to progress by all means… It is a good point! I see that reading the code produced by my younger collegues is becoming difficult, due to the massive use of the tidyverse and the pipes. I still have a few years to go, before retirement and I do not yet fell like being set aside. Therefore, a few weeks ago I finally surrendered and ‘embraced’ the tidyverse. Here is how I revisited my previous post.

Subsetting the data

Subsetting means selecting the records (rows) or the variables (columns) which satisfy certain criteria. Let’s take the ‘students.csv’ dataset, which is available on one of my repositories. It is a database of student’s marks in a series of exams for different subjects and, obviously, I will use the ‘readr’ package to read it.

library(readr)
library(dplyr)
library(tidyr)
students <- read_csv("https://www.casaonofri.it/_datasets/students.csv")
students
## # A tibble: 232 x 6
##       Id Subject  Date        Mark  Year HighSchool 
##    <dbl> <chr>    <chr>      <dbl> <dbl> <chr>      
##  1     1 AGRONOMY 10/06/2002    30  2001 CLASSICO   
##  2     2 AGRONOMY 08/07/2002    24  2001 AGRARIO    
##  3     3 AGRONOMY 24/06/2002    30  2001 AGRARIO    
##  4     4 AGRONOMY 24/06/2002    26  2001 CLASSICO   
##  5     5 AGRONOMY 23/01/2003    30  2001 CLASSICO   
##  6     6 AGRONOMY 09/09/2002    28  2001 AGRARIO    
##  7     7 AGRONOMY 24/02/2003    26  2001 CLASSICO   
##  8     8 AGRONOMY 09/09/2002    26  2001 SCIENTIFICO
##  9     9 AGRONOMY 09/09/2002    23  2001 RAGIONERIA 
## 10    10 AGRONOMY 08/07/2002    27  2001 CLASSICO   
## # … with 222 more rows

With respect to the usual read.csv function I saved some typing, as I did not need to specify the ‘header = T’ argument. Furthermore, printing the tibble only shows the first ten rows, which makes the ‘head()’ function no longer needed.

Let’s go ahead and try to subset this tibble: we want to extract the good students, with marks higher than 28. In my previous post, I used the ‘subset()’ function. Now, I will use the ‘filter()’ function in the ‘dplyr’ package:

# subData <- subset(students, Mark >= 28)
subData <- filter(students, Mark >= 28)
subData
## # A tibble: 87 x 6
##       Id Subject  Date        Mark  Year HighSchool 
##    <dbl> <chr>    <chr>      <dbl> <dbl> <chr>      
##  1     1 AGRONOMY 10/06/2002    30  2001 CLASSICO   
##  2     3 AGRONOMY 24/06/2002    30  2001 AGRARIO    
##  3     5 AGRONOMY 23/01/2003    30  2001 CLASSICO   
##  4     6 AGRONOMY 09/09/2002    28  2001 AGRARIO    
##  5    11 AGRONOMY 09/09/2002    28  2001 SCIENTIFICO
##  6    17 AGRONOMY 10/06/2002    30  2001 CLASSICO   
##  7    18 AGRONOMY 10/06/2002    30  2001 AGRARIO    
##  8    19 AGRONOMY 09/09/2002    30  2001 AGRARIO    
##  9    20 AGRONOMY 09/09/2002    30  2001 ALTRO      
## 10    22 AGRONOMY 23/01/2003    30  2001 RAGIONERIA 
## # … with 77 more rows
…
Looking at the above two-steps process I could easily understand the meaning of the pipe operator: it simply replaces the word ‘then’ between the two steps (filter and then select is translated into filter %>% select). Here is the resulting code:

subData <- students %>%
  filter(Mark <= 28 & Mark >=26 & 
                    Subject == "MATHS" | 
                    Subject == "CHEMISTRY") %>%
  select(c(Subject, Mark, HighSchool))
subData
## # A tibble: 50 x 3
##    Subject    Mark HighSchool 
##    <chr>     <dbl> <chr>      
##  1 CHEMISTRY    20 AGRARIO    
##  2 CHEMISTRY    21 CLASSICO   
##  3 CHEMISTRY    21 CLASSICO   
##  4 CHEMISTRY    18 AGRARIO    
##  5 CHEMISTRY    28 ALTRO      
##  6 CHEMISTRY    23 RAGIONERIA 
##  7 CHEMISTRY    26 RAGIONERIA 
##  8 CHEMISTRY    27 AGRARIO    
##  9 CHEMISTRY    27 SCIENTIFICO
## 10 CHEMISTRY    23 RAGIONERIA 
## # … with 40 more rows

In the end: there is not much difference between ‘subset()’ and ‘filter()’. However, I must admit I am seduced by the ‘pipe’ operator… my younger collegues may be right: it should be possible to chain several useful data management steps, producing highly readable code. But… how about debugging?

Sorting the data

In my previous post I showed how to sort a data frame by using the ‘order()’ function. Now, I can use the ‘arrange()’ function:

# sortedData <- students[order(-students$Mark, students$Subject), ]
# head(sortedData)
sortedData <- arrange(students, desc(Mark), Subject)
sortedData
## # A tibble: 232 x 6
##       Id Subject  Date        Mark  Year HighSchool
##    <dbl> <chr>    <chr>      <dbl> <dbl> <chr>     
##  1     1 AGRONOMY 10/06/2002    30  2001 CLASSICO  
##  2     3 AGRONOMY 24/06/2002    30  2001 AGRARIO   
##  3     5 AGRONOMY 23/01/2003    30  2001 CLASSICO  
##  4    17 AGRONOMY 10/06/2002    30  2001 CLASSICO  
##  5    18 AGRONOMY 10/06/2002    30  2001 AGRARIO   
##  6    19 AGRONOMY 09/09/2002    30  2001 AGRARIO   
##  7    20 AGRONOMY 09/09/2002    30  2001 ALTRO     
##  8    22 AGRONOMY 23/01/2003    30  2001 RAGIONERIA
##  9    38 BIOLOGY  28/02/2002    30  2001 AGRARIO   
## 10    42 BIOLOGY  28/02/2002    30  2001 RAGIONERIA
## # … with 222 more rows
# sortedData <- students[order(-students$Mark, -xtfrm(students$Subject)), ]
# head(sortedData)
sortedData <- arrange(students, desc(Mark), desc(Subject))
sortedData
## # A tibble: 232 x 6
##       Id Subject Date        Mark  Year HighSchool 
##    <dbl> <chr>   <chr>      <dbl> <dbl> <chr>      
##  1   116 MATHS   01/07/2002    30  2001 ALTRO      
##  2   117 MATHS   18/06/2002    30  2001 RAGIONERIA 
##  3   118 MATHS   09/07/2002    30  2001 AGRARIO    
##  4   121 MATHS   18/06/2002    30  2001 RAGIONERIA 
##  5   123 MATHS   09/07/2002    30  2001 CLASSICO   
##  6   130 MATHS   07/02/2002    30  2001 SCIENTIFICO
##  7   131 MATHS   09/07/2002    30  2001 AGRARIO    
##  8   134 MATHS   26/02/2002    30  2001 AGRARIO    
##  9   135 MATHS   11/02/2002    30  2001 AGRARIO    
## 10   143 MATHS   04/02/2002    30  2001 RAGIONERIA 
## # … with 222 more rows
…
Casting the data

When we have a dataset in the LONG format, we might be interested in reshaping it into the WIDE format. This is the same as what the ‘pivot table’ function in Excel does. For example, take the ‘rimsulfuron.csv’ dataset in my repository. This contains the results of a randomised block experiment, where we have 16 herbicides in four blocks. The dataset is in the LONG format, with one row per plot.

rimsulfuron <- read_csv("https://www.casaonofri.it/_datasets/rimsulfuron.csv")
## Parsed with column specification:
## cols(
##   Herbicide = col_character(),
##   Block = col_character(),
##   Height = col_double(),
##   Yield = col_double()
## )
rimsulfuron
## # A tibble: 60 x 4
##    Herbicide Block Height Yield
##    <chr>     <chr>  <dbl> <dbl>
##  1 A         B1      183.  93.9
##  2 B         B1      187  103. 
##  3 C         B1      188.  92.7
##  4 D         B1      183.  88.7
##  5 E         B1      184.  91.0
##  6 F         B1      179.  98.4
##  7 G         B1      192. 105. 
##  8 H         B1      191  121. 
##  9 I         B1      209. 111. 
## 10 J         B1      210   82.7
## # … with 50 more rows
…
In this case we do the reverse: we transform the dataset from WIDE to LONG format. In my previous post I used the ‘melt()’ function in the ‘reshape2’ package; now, I will use the ‘pivot_longer()’ function in ‘tidyr’.

# library(reshape2)
# castData <- as.data.frame(castData)
# mdati <- melt(castData,
#               variable.name = "Block",
#               value.name = "Yield",
#               id=c("Herbicide"))
# 
# head(mdati)
# 
pivot_longer(castData, names_to = "Block", values_to = "Yield",
             cols = c(2:5))
## # A tibble: 60 x 3
##    Herbicide Block Yield
##    <chr>     <chr> <dbl>
##  1 A         B1     93.9
##  2 A         B2    105. 
##  3 A         B3     94.1
##  4 A         B4    111. 
##  5 B         B1    103. 
##  6 B         B2     98.5
##  7 B         B3    106. 
##  8 B         B4    128. 
##  9 C         B1     92.7
## 10 C         B2    107. 
## # … with 50 more rows
…
