The broken bridge between biologists and statisticians | Split-plot designs: the transition to mixed models for a dinosaur
…
In a previous post, I already mentioned that, due to my age, I see myself as a dinosaur within the R-users community. I already mentioned how difficult it is, for a dinosaur, to adjust to new concepts and paradigms in data analysis, after having done things differently for a long time ( see this post here ). Today, I decided to sit and write a second post, relating to data analyses for split-plot designs. Some years ago, when switching to R, this topic required some adjustments to my usual workflow, which gave me a few headaches.

Let’s start from a real-life example.

A split-plot experiment

The dataset ‘beet.csv’ is available in a web repository. It was obtained from a split-plot experiment with two experimental factors: three tillage methods (shallow ploughing, deep ploughing and minimum tillage) and two weed control methods (total and partial, meaning that the herbicide was sprayed broadcast or only along crop rows). Tillage methods were allocated to main-plots, while weed control methods were allocated to sub-plots and the experiment was designed in four complete blocks. A typical split-plot field experiment, indeed. The code below can be used to load the data.

library(tidyverse)
fileName <- "https://www.casaonofri.it/_datasets/beet.csv"
dataset <- read_csv(fileName)
dataset <- dataset %>% 
  mutate(across(c(Tillage, WeedControl, Block), .fns = factor))
dataset
## # A tibble: 24 x 4
##    Tillage WeedControl Block Yield
##    <fct>   <fct>       <fct> <dbl>
##  1 MIN     TOT         1     11.6 
##  2 MIN     TOT         2      9.28
##  3 MIN     TOT         3      7.02
##  4 MIN     TOT         4      8.02
##  5 MIN     PART        1      5.12
##  6 MIN     PART        2      4.31
##  7 MIN     PART        3      8.94
##  8 MIN     PART        4      5.62
##  9 SP      TOT         1     10.0 
## 10 SP      TOT         2      8.69
## # … with 14 more rows
…
