…
But now, the tidyverse is with us! Well, as far as I know, the tidyverse has been around long before my post. However, for a long time, I did not want to surrender to such a new paradygm. I am no longer a young scientist and, therefore, picking up new techniques is becoming more difficult: why should I abandon my effective workflow in favour of new techniques, which I am not familiar with? Yes I know, the young scientists are thinking that I am just an old dinosaur, who is trying to resist to progress by all means... It is a good point! I see that reading the code produced by my younger collegues is becoming difficult, due to the massive use of the tidyverse and the pipes. I still have a few years to go, before retirement and I do not yet fell like being set aside. Therefore, a few weeks ago I finally surrendered and 'embraced' the tidyverse. Here is how I revisited my previous post.

# Subsetting the data

Subsetting means selecting the records (rows) or the variables (columns) which satisfy certain criteria. Let's take the 'students.csv' dataset, which is available on one of my repositories. It is a database of student's marks in a series of exams for different subjects and, obviously, I will use the 'readr' package to read it.


``` r
library(readr)
library(dplyr)
library(tidyr)
students <- read_csv("https://www.casaonofri.it/_datasets/students.csv")
students
## # A tibble: 232 × 6
##       Id Subject  Date        Mark  Year HighSchool 
##    <dbl> <chr>    <chr>      <dbl> <dbl> <chr>      
##  1     1 AGRONOMY 10/06/2002    30  2001 HUMANITIES 
##  2     2 AGRONOMY 08/07/2002    24  2001 AGRICULTURE
##  3     3 AGRONOMY 24/06/2002    30  2001 AGRICULTURE
##  4     4 AGRONOMY 24/06/2002    26  2001 HUMANITIES 
##  5     5 AGRONOMY 23/01/2003    30  2001 HUMANITIES 
##  6     6 AGRONOMY 09/09/2002    28  2001 AGRICULTURE
##  7     7 AGRONOMY 24/02/2003    26  2001 HUMANITIES 
##  8     8 AGRONOMY 09/09/2002    26  2001 SCIENTIFIC 
##  9     9 AGRONOMY 09/09/2002    23  2001 ACCOUNTING 
## 10    10 AGRONOMY 08/07/2002    27  2001 HUMANITIES 
## # ℹ 222 more rows
```

With respect to the usual `read.csv` function I saved some typing, as I did not need to specify the 'header = T' argument. Furthermore, printing the tibble only shows the first ten rows, which makes the 'head()' function no longer needed.

Let's go ahead and try to subset this tibble: we want to extract the good students, with marks higher than 28. In my previous post, I used the 'subset()' function. Now, I will use the 'filter()' function in the 'dplyr' package:


``` r
# subData <- subset(students, Mark >= 28)
subData <- filter(students, Mark >= 28)
subData
## # A tibble: 87 × 6
##       Id Subject  Date        Mark  Year HighSchool  
##    <dbl> <chr>    <chr>      <dbl> <dbl> <chr>       
##  1     1 AGRONOMY 10/06/2002    30  2001 HUMANITIES  
##  2     3 AGRONOMY 24/06/2002    30  2001 AGRICULTURE 
##  3     5 AGRONOMY 23/01/2003    30  2001 HUMANITIES  
##  4     6 AGRONOMY 09/09/2002    28  2001 AGRICULTURE 
##  5    11 AGRONOMY 09/09/2002    28  2001 SCIENTIFIC  
##  6    17 AGRONOMY 10/06/2002    30  2001 HUMANITIES  
##  7    18 AGRONOMY 10/06/2002    30  2001 AGRICULTURE 
##  8    19 AGRONOMY 09/09/2002    30  2001 AGRICULTURE 
##  9    20 AGRONOMY 09/09/2002    30  2001 OTHER SCHOOL
## 10    22 AGRONOMY 23/01/2003    30  2001 ACCOUNTING  
## # ℹ 77 more rows
```
…
Looking at the above two-steps process I could easily understand the meaning of the pipe operator: it simply replaces the word 'then' between the two steps (`filter` and then `select` is translated into `filter %>% select`). Here is the resulting code:


``` r
subData <- students %>%
  filter(Mark <= 28 & Mark >=26 & 
                    Subject == "MATHS" | 
                    Subject == "CHEMISTRY") %>%
  select(c(Subject, Mark, HighSchool))
subData
## # A tibble: 50 × 3
##    Subject    Mark HighSchool  
##    <chr>     <dbl> <chr>       
##  1 CHEMISTRY    20 AGRICULTURE 
##  2 CHEMISTRY    21 HUMANITIES  
##  3 CHEMISTRY    21 HUMANITIES  
##  4 CHEMISTRY    18 AGRICULTURE 
##  5 CHEMISTRY    28 OTHER SCHOOL
##  6 CHEMISTRY    23 ACCOUNTING  
##  7 CHEMISTRY    26 ACCOUNTING  
##  8 CHEMISTRY    27 AGRICULTURE 
##  9 CHEMISTRY    27 SCIENTIFIC  
## 10 CHEMISTRY    23 ACCOUNTING  
## # ℹ 40 more rows
```

In the end: there is not much difference between 'subset()' and 'filter()'. However, I must admit I am seduced by the 'pipe' operator... my younger collegues may be right: it should be possible to chain several useful data management steps, producing highly readable code. But... how about debugging?

# Sorting the data

In my previous post I showed how to sort a data frame by using the 'order()' function. Now, I can use the 'arrange()' function:



``` r
# sortedData <- students[order(-students$Mark, students$Subject), ]
# head(sortedData)
sortedData <- arrange(students, desc(Mark), Subject)
sortedData
## # A tibble: 232 × 6
##       Id Subject  Date        Mark  Year HighSchool  
##    <dbl> <chr>    <chr>      <dbl> <dbl> <chr>       
##  1     1 AGRONOMY 10/06/2002    30  2001 HUMANITIES  
##  2     3 AGRONOMY 24/06/2002    30  2001 AGRICULTURE 
##  3     5 AGRONOMY 23/01/2003    30  2001 HUMANITIES  
##  4    17 AGRONOMY 10/06/2002    30  2001 HUMANITIES  
##  5    18 AGRONOMY 10/06/2002    30  2001 AGRICULTURE 
##  6    19 AGRONOMY 09/09/2002    30  2001 AGRICULTURE 
##  7    20 AGRONOMY 09/09/2002    30  2001 OTHER SCHOOL
##  8    22 AGRONOMY 23/01/2003    30  2001 ACCOUNTING  
##  9    38 BIOLOGY  28/02/2002    30  2001 AGRICULTURE 
## 10    42 BIOLOGY  28/02/2002    30  2001 ACCOUNTING  
## # ℹ 222 more rows
 r
# sortedData <- students[order(-students$Mark, -xtfrm(students$Subject)), ]
# head(sortedData)
sortedData <- arrange(students, desc(Mark), desc(Subject))
sortedData
## # A tibble: 232 × 6
##       Id Subject Date        Mark  Year HighSchool  
##    <dbl> <chr>   <chr>      <dbl> <dbl> <chr>       
##  1   116 MATHS   01/07/2002    30  2001 OTHER SCHOOL
##  2   117 MATHS   18/06/2002    30  2001 ACCOUNTING  
##  3   118 MATHS   09/07/2002    30  2001 AGRICULTURE 
##  4   121 MATHS   18/06/2002    30  2001 ACCOUNTING  
##  5   123 MATHS   09/07/2002    30  2001 HUMANITIES  
##  6   130 MATHS   07/02/2002    30  2001 SCIENTIFIC  
##  7   131 MATHS   09/07/2002    30  2001 AGRICULTURE 
##  8   134 MATHS   26/02/2002    30  2001 AGRICULTURE 
##  9   135 MATHS   11/02/2002    30  2001 AGRICULTURE 
## 10   143 MATHS   04/02/2002    30  2001 ACCOUNTING  
## # ℹ 222 more rows
```
…
``` r
rimsulfuron <- read_csv("https://www.casaonofri.it/_datasets/rimsulfuron.csv")
## Rows: 64 Columns: 7
## ── Column specification ────────────────────────────────────────────────────────
## Delimiter: ","
## chr (1): Herbicide
## dbl (6): Plot, Code, Block, Box, WeedCover, Yield
## 
## ℹ Use `spec()` to retrieve the full column specification for this data.
## ℹ Specify the column types or set `show_col_types = FALSE` to quiet this message.
 r
rimsulfuron
## # A tibble: 64 × 7
##    Herbicide                              Plot  Code Block   Box WeedCover Yield
##    <chr>                                 <dbl> <dbl> <dbl> <dbl>     <dbl> <dbl>
##  1 Rimsulfuron (40)                          1     1     1     1      27.8  85.9
##  2 Rimsulfuron (45)                          2     2     1     1      27.8  93.0
##  3 Rimsulfuron (50)                          3     3     1     1      23    86.9
##  4 Rimsulfuron (60)                          4     4     1     1      42.8  53.0
##  5 Rimsulfuron (50+30 split)                 5     5     1     2      15.1  71.4
##  6 Rimsulfuron + thyfensulfuron              6     6     1     2      22.9  75.3
##  7 Rimsulfuron + hoeing                      7     7     1     2      17.7  73.2
##  8 Pendimethalin (pre) + rimsulfuron (p…     8     8     1     2      10.2  65.5
##  9 Pendimethalin (post) + rimsuulfuron …     9     9     1     1       5.4  94.8
## 10 Rimsulfuron + Atred                      10    10     1     1      40.3  94.1
## # ℹ 54 more rows
```
…
``` r
# library(reshape2)
# castData <- as.data.frame(castData)
# mdati <- melt(castData,
#               variable.name = "Block",
#               value.name = "Yield",
#               id=c("Herbicide"))
# 
# head(mdati)
# 
pivot_longer(castData, names_to = "Block", values_to = "Yield",
             cols = c(2:5))
## # A tibble: 64 × 3
##    Herbicide        Block Yield
##    <chr>            <chr> <dbl>
##  1 Rimsulfuron (40) 1      85.9
##  2 Rimsulfuron (40) 2      91.1
##  3 Rimsulfuron (40) 3     111. 
##  4 Rimsulfuron (40) 4      93.2
##  5 Rimsulfuron (45) 1      93.0
##  6 Rimsulfuron (45) 2     105  
##  7 Rimsulfuron (45) 3      89.2
##  8 Rimsulfuron (45) 4      79.0
##  9 Rimsulfuron (50) 1      86.9
## 10 Rimsulfuron (50) 2     106. 
## # ℹ 54 more rows
```
…
