The broken bridge between biologists and statisticians | General code to fit ANOVA models with JAGS and 'rjags'
…
Reusing the code for a multi-environment experiment

The JAGS model above is very general and can be easily reused for other situations. For example, if the above genotype experiment is replicated across years, we might like to fit an ANOVA model by considering the blocks (within years), the genotypes, the years and the ‘year by genotype’ interaction. The dataset is available in the same external repository, as the ‘WinterWheat.csv’ file.

The JAGS specification for this multienvironment model does not change, we only need to update the \(Y\), \(X\) and \(K\) matrices, as shown in the box below. In order to obtain the contrast matrix for the means of the ‘genotype x environment’ combinations we need to write some cumbersome code, as shown below (but, perhaps, some of you could suggest better alternatives…).

library(tidyverse)

# Loading the data
fileName <- "https://www.casaonofri.it/_datasets/WinterWheat.csv"
dataset <- read_csv(fileName)
dataset <- dataset %>% 
  mutate(across(c(Block, Year, Genotype), .fns = factor))
dataset
## # A tibble: 168 x 5
##     Plot Block Genotype Yield Year 
##    <dbl> <fct> <fct>    <dbl> <fct>
##  1     2 1     COLOSSEO  6.73 1996 
##  2   110 2     COLOSSEO  6.96 1996 
##  3   181 3     COLOSSEO  5.35 1996 
##  4     2 1     COLOSSEO  6.26 1997 
##  5   110 2     COLOSSEO  7.01 1997 
##  6   181 3     COLOSSEO  6.11 1997 
##  7    17 1     COLOSSEO  6.75 1998 
##  8   110 2     COLOSSEO  6.82 1998 
##  9   256 3     COLOSSEO  6.52 1998 
## 10    18 1     COLOSSEO  7.18 1999 
## # … with 158 more rows
…
