The broken bridge between biologists and statisticians | Split-plot designs: the transition from 'aov()' to 'lme()'
…
## x dplyr::lag()    masks stats::lag()
fileName <- "https://www.casaonofri.it/_datasets/beet.csv"
dataset <- read_csv(fileName)
## 
## ── Column specification ────────────────────────────────────────────────────────
## cols(
##   Tillage = col_character(),
##   WeedControl = col_character(),
##   Block = col_double(),
##   Yield = col_double()
## )
dataset <- dataset %>% 
  mutate(across(c(Tillage, WeedControl, Block), .fns = factor))
dataset
## # A tibble: 24 x 4
##    Tillage WeedControl Block Yield
##    <fct>   <fct>       <fct> <dbl>
##  1 MIN     TOT         1     11.6 
##  2 MIN     TOT         2      9.28
##  3 MIN     TOT         3      7.02
##  4 MIN     TOT         4      8.02
##  5 MIN     PART        1      5.12
##  6 MIN     PART        2      4.31
##  7 MIN     PART        3      8.94
##  8 MIN     PART        4      5.62
##  9 SP      TOT         1     10.0 
## 10 SP      TOT         2      8.69
## # … with 14 more rows
…
